<svg xmlns="http://www.w3.org/2000/svg" width="30" height="30" viewBox="0 0 30 30">
    <path fill="#2AABFA" fill-rule="nonzero" d="M14.133 19.49V8.38c0-.487.407-.881.878-.881.485 0 .878.406.878.881v11.087l3.45-3.45a.883.883 0 0 1 1.24.004c.334.334.346.9.005 1.24l-4.89 4.89a.88.88 0 0 1-.695.334.88.88 0 0 1-.694-.335l-4.889-4.889a.886.886 0 0 1 .005-1.24.883.883 0 0 1 1.24-.005l3.472 3.473zM0 15C0 6.716 6.716 0 15 0c8.284 0 15 6.716 15 15 0 8.284-6.716 15-15 15-8.284 0-15-6.716-15-15zm1.667 0c0 7.364 5.97 13.333 13.333 13.333 7.364 0 13.333-5.97 13.333-13.333 0-7.364-5.97-13.333-13.333-13.333C7.636 1.667 1.667 7.637 1.667 15z"/>
</svg>
