<?xml version="1.0" encoding="UTF-8"?>
<svg width="24px" height="24px" viewBox="0 0 24 24" version="1.1" xmlns="http://www.w3.org/2000/svg" xmlns:xlink="http://www.w3.org/1999/xlink">
    <!-- Generator: Sketch 44.1 (41455) - http://www.bohemiancoding.com/sketch -->
    <title>orders copy</title>
    <desc>Created with Sketch.</desc>
    <defs>
        <polygon id="path-1" points="0.3382 24 16.4852 24 16.4852 0.0002 0.3382 0.0002"></polygon>
    </defs>
    <g id="Page-1" stroke="none" stroke-width="1" fill="none" fill-rule="evenodd">
        <g id="orders-copy">
            <g id="Group-9" transform="translate(3.600000, 0.000000)">
                <g id="Group-70" transform="translate(0.000000, 0.000100)">
                    <mask id="mask-2" fill="white">
                        <use xlink:href="#path-1"></use>
                    </mask>
                    <g id="Clip-69"></g>
                    <path d="M15.4852,20.8252 C15.4852,22.0242 14.5092,23.0002 13.3102,23.0002 L3.5122,23.0002 C2.3132,23.0002 1.3382,22.0242 1.3382,20.8252 L1.3382,3.1752 C1.3382,1.9752 2.3132,1.0002 3.5122,1.0002 L5.5422,1.0002 C5.6602,1.6982 6.2612,2.2352 6.9822,2.2352 L9.8402,2.2352 C10.5622,2.2352 11.1622,1.6982 11.2812,1.0002 L13.3102,1.0002 C14.5092,1.0002 15.4852,1.9752 15.4852,3.1752 L15.4852,20.8252 Z M13.3102,0.0002 L3.5122,0.0002 C1.7612,0.0002 0.3382,1.4242 0.3382,3.1752 L0.3382,20.8252 C0.3382,22.5762 1.7612,24.0002 3.5122,24.0002 L13.3102,24.0002 C15.0612,24.0002 16.4852,22.5762 16.4852,20.8252 L16.4852,3.1752 C16.4852,1.4242 15.0612,0.0002 13.3102,0.0002 L13.3102,0.0002 Z" id="Fill-68" fill="#999999" mask="url(#mask-2)"></path>
                </g>
                <path d="M13.6034,4.589 L10.8164,4.589 C10.5404,4.589 10.3164,4.813 10.3164,5.089 C10.3164,5.365 10.5404,5.589 10.8164,5.589 L13.6034,5.589 C13.8794,5.589 14.1034,5.365 14.1034,5.089 C14.1034,4.813 13.8794,4.589 13.6034,4.589" id="Fill-71" fill="#999999"></path>
                <path d="M3.2196,5.589 L6.3416,5.589 C6.6176,5.589 6.8416,5.365 6.8416,5.089 C6.8416,4.813 6.6176,4.589 6.3416,4.589 L3.2196,4.589 C2.9436,4.589 2.7196,4.813 2.7196,5.089 C2.7196,5.365 2.9436,5.589 3.2196,5.589" id="Fill-73" fill="#999999"></path>
                <path d="M4.5342,18.3021 C3.8082,18.3021 3.2202,18.8701 3.2202,19.5711 C3.2202,20.2721 3.8082,20.8411 4.5342,20.8411 C5.2602,20.8411 5.8482,20.2721 5.8482,19.5711 C5.8482,18.8701 5.2602,18.3021 4.5342,18.3021" id="Fill-75" fill="#999999"></path>
                <path d="M6.6268,8.1778 L4.7158,10.2068 L3.5218,9.3008 C3.3038,9.1348 2.9888,9.1758 2.8208,9.3978 C2.6538,9.6168 2.6968,9.9308 2.9178,10.0978 L4.4708,11.2758 C4.4808,11.2828 4.4938,11.2798 4.5038,11.2868 C4.5848,11.3388 4.6728,11.3728 4.7648,11.3748 C4.7668,11.3748 4.7698,11.3768 4.7728,11.3768 C4.7818,11.3768 4.7908,11.3708 4.7998,11.3708 C4.8608,11.3668 4.9218,11.3548 4.9788,11.3298 C4.9998,11.3198 5.0168,11.3018 5.0368,11.2888 C5.0708,11.2668 5.1078,11.2498 5.1378,11.2188 L7.3558,8.8638 C7.5448,8.6618 7.5348,8.3458 7.3338,8.1568 C7.1328,7.9668 6.8158,7.9768 6.6268,8.1778" id="Fill-77" fill="#999999"></path>
                <path d="M6.6268,12.8097 L4.7158,14.8387 L3.5218,13.9327 C3.3038,13.7667 2.9888,13.8087 2.8208,14.0297 C2.6538,14.2487 2.6968,14.5627 2.9178,14.7297 L4.4708,15.9077 C4.4808,15.9147 4.4938,15.9117 4.5038,15.9187 C4.5848,15.9707 4.6728,16.0047 4.7648,16.0067 C4.7668,16.0067 4.7698,16.0087 4.7728,16.0087 C4.7818,16.0087 4.7908,16.0027 4.7998,16.0027 C4.8608,15.9987 4.9218,15.9867 4.9788,15.9617 C4.9998,15.9517 5.0168,15.9337 5.0368,15.9207 C5.0708,15.8987 5.1078,15.8817 5.1378,15.8507 L7.3558,13.4957 C7.5448,13.2937 7.5348,12.9777 7.3338,12.7887 C7.1328,12.5987 6.8158,12.6087 6.6268,12.8097" id="Fill-79" fill="#999999"></path>
                <path d="M13.6034,9.1993 L9.8274,9.1993 C9.5504,9.1993 9.3274,9.4233 9.3274,9.6993 C9.3274,9.9753 9.5504,10.1993 9.8274,10.1993 L13.6034,10.1993 C13.8794,10.1993 14.1034,9.9753 14.1034,9.6993 C14.1034,9.4233 13.8794,9.1993 13.6034,9.1993" id="Fill-81" fill="#999999"></path>
                <path d="M13.6034,13.8312 L9.8274,13.8312 C9.5504,13.8312 9.3274,14.0552 9.3274,14.3312 C9.3274,14.6072 9.5504,14.8312 9.8274,14.8312 L13.6034,14.8312 C13.8794,14.8312 14.1034,14.6072 14.1034,14.3312 C14.1034,14.0552 13.8794,13.8312 13.6034,13.8312" id="Fill-83" fill="#999999"></path>
                <path d="M13.6034,19.0714 L9.8274,19.0714 C9.5504,19.0714 9.3274,19.2954 9.3274,19.5714 C9.3274,19.8474 9.5504,20.0714 9.8274,20.0714 L13.6034,20.0714 C13.8794,20.0714 14.1034,19.8474 14.1034,19.5714 C14.1034,19.2954 13.8794,19.0714 13.6034,19.0714" id="Fill-85" fill="#999999"></path>
            </g>
        </g>
    </g>
</svg>