<?xml version="1.0" encoding="UTF-8"?>
<svg width="24px" height="24px" viewBox="0 0 24 24" version="1.1" xmlns="http://www.w3.org/2000/svg" xmlns:xlink="http://www.w3.org/1999/xlink">
    <!-- Generator: Sketch 44.1 (41455) - http://www.bohemiancoding.com/sketch -->
    <title>Push Notification Copy</title>
    <desc>Created with Sketch.</desc>
    <defs></defs>
    <g id="Page-1" stroke="none" stroke-width="1" fill="none" fill-rule="evenodd">
        <g id="Push-Notification-Copy" fill="#999999">
            <g id="Group-6" transform="translate(0.000000, 2.000000)">
                <path d="M17.7169846,19.7131385 L4.59267692,19.7131385 C2.45021538,19.7131385 0.707446154,17.9703692 0.707446154,15.8279077 L0.707446154,5.40267692 C0.707446154,3.26113846 2.45021538,1.51836923 4.59267692,1.51836923 L15.3049846,1.51836923 C15.5597538,1.51836923 15.7665231,1.72513846 15.7665231,1.97990769 C15.7665231,2.23467692 15.5597538,2.44144615 15.3049846,2.44144615 L4.59267692,2.44144615 C2.95975385,2.44144615 1.63052308,3.77067692 1.63052308,5.40267692 L1.63052308,15.8279077 C1.63052308,17.4617538 2.95975385,18.7900615 4.59267692,18.7900615 L17.7169846,18.7900615 C19.3508308,18.7900615 20.6791385,17.4617538 20.6791385,15.8279077 L20.6791385,8.78483077 C20.6791385,8.53006154 20.8859077,8.32329231 21.1406769,8.32329231 C21.3954462,8.32329231 21.6022154,8.53006154 21.6022154,8.78483077 L21.6022154,15.8279077 C21.6022154,17.9703692 19.8594462,19.7131385 17.7169846,19.7131385" id="Fill-18"></path>
                <path d="M23.1520615,3.91504615 C23.1520615,5.77135385 21.6474462,7.27596923 19.7911385,7.27596923 C17.9348308,7.27596923 16.4292923,5.77135385 16.4292923,3.91504615 C16.4292923,2.05873846 17.9348308,0.554123077 19.7911385,0.554123077 C21.6474462,0.554123077 23.1520615,2.05873846 23.1520615,3.91504615" id="Fill-19"></path>
            </g>
        </g>
    </g>
</svg>