<svg xmlns="http://www.w3.org/2000/svg" width="30" height="30" viewBox="0 0 30 30">
    <path fill="#2AABFA" fill-rule="nonzero" d="M14.133 10.51V21.62c0 .487.407.881.878.881a.887.887 0 0 0 .878-.881V10.532l3.45 3.45a.883.883 0 0 0 1.24-.004.886.886 0 0 0 .005-1.24l-4.89-4.89A.88.88 0 0 0 15 7.515a.88.88 0 0 0-.694.335l-4.889 4.889a.886.886 0 0 0 .005 1.24.883.883 0 0 0 1.24.005l3.472-3.473zM0 15c0 8.284 6.716 15 15 15 8.284 0 15-6.716 15-15 0-8.284-6.716-15-15-15C6.716 0 0 6.716 0 15zm1.667 0C1.667 7.636 7.637 1.667 15 1.667c7.364 0 13.333 5.97 13.333 13.333 0 7.364-5.97 13.333-13.333 13.333-7.364 0-13.333-5.97-13.333-13.333z"/>
</svg>
